{
    "$schema": "https://themost-framework.github.io/themost/models/2018/2/schema.json",
    "@id": "http://www.imsglobal.org/StatusType",
    "name": "OneRosterStatusType",
    "title": "OneRosterStatusType",
    "abstract": false,
    "hidden": true,
    "sealed": false,
    "version": "1.0",
    "source": "OneRosterStatusTypes",
    "view": "OneRosterStatusTypes",
    "fields": [
        {
            "@id": "http://www.imsglobal.org/id",
            "name": "id",
            "type": "Counter",
            "primary": true,
            "nullable": false
        },
        {
            "@id": "http://www.imsglobal.org/name",
            "name": "name",
            "type": "Text",
            "nullable": false,
            "size": 24
        }
    ],
    "constraints": [
        {
            "type": "unique",
            "fields": [
                "name"
            ]
        }
    ],
    "privileges": [
        {
            "mask": 15,
            "type": "global"
        },
        {
            "mask": 15,
            "type": "global",
            "account": "Administrators"
        },
        {
            "mask": 15,
            "type": "global",
            "account": "OneRosterAdmins"
        }
    ],
    "seed": [
        {
            "name": "active"
        },
        {
            "name": "tobedeleted"
        },
        {
            "name": "inactive"
        }
    ]
}
