{
  "$schema": "https://themost-framework.github.io/themost/models/2018/2/schema.json",
  "@id": "https://universis.io/OneRosterCourseMetadata",
  "name": "OneRosterCourseMetadata",
  "title": "OneRosterCourseMetadata",
  "abstract": false,
  "hidden": true,
  "sealed": false,
  "implements": "OneRosterMetadata",
  "version": "1.1.0",
  "fields": [
    {
      "@id": "http://www.imsglobal.org/course",
      "name": "course",
      "description": "The course",
      "type": "OneRosterCourse",
      "nullable": false
    },
    {
      "name": "locales",
      "description": "Localization data associated with the course",
      "type": "OneRosterCourseLocale",
      "mapping": {
        "associationType": "association",
        "cascade": "delete",
        "parentModel": "OneRosterCourseMetadata",
        "parentField": "course",
        "childModel": "OneRosterCourseLocale",
        "childField": "object"
      }
    },
    {
      "name": "locale",
      "description": "The current locale data of the course",
      "type": "OneRosterCourseLocale",
      "readonly": true,
      "editable": false,
      "many": true,
      "expandable": true,
      "multiplicity": "ZeroOrOne",
      "mapping": {
        "associationType": "association",
        "cascade": "delete",
        "parentModel": "OneRosterCourseMetadata",
        "parentField": "course",
        "childModel": "OneRosterCourseLocale",
        "childField": "object",
        "options": {
          "$filter": "inLanguage eq lang()",
          "$first": true
        }
      }
    }
  ],
  "eventListeners": [
    {
        "type": "./listeners/MultiLingualDataListener"
    }
],
  "constraints": [
    {
      "type": "unique",
      "fields": [
        "course"
      ]
    }
  ],
  "privileges": [
    {
      "mask": 15,
      "type": "global"
    },
    {
      "mask": 15,
      "type": "global",
      "account": "Administrators"
    },
    {
        "mask": 15,
        "type": "global",
        "account": "OneRosterAdmins"
    }
  ]
}