{
    "$schema": "https://themost-framework.github.io/themost/models/2018/2/schema.json",
    "@id": "https://universis.io/OneRosterOrgMetadata",
    "name": "OneRosterOrgMetadata",
    "title": "OneRosterOrgMetadata",
    "abstract": false,
    "hidden": true,
    "sealed": false,
    "implements": "OneRosterMetadata",
    "version": "1.1.0",
    "fields": [
        {
            "@id": "http://www.imsglobal.org/org",
            "name": "org",
            "type": "OneRosterOrg",
            "nullable": false
        },
        {
            "name": "gradingSchemes",
            "type": "GradeScale",
            "expandable": true,
            "many": true,
            "mapping": {
                "associationType": "junction",
                "associationAdapter": "OrgMetadataGradingSchemes",
                "associationObjectField": "metadata",
                "associationValueField": "gradingScheme",
                "parentModel": "OneRosterOrgMetadata",
                "parentField": "id",
                "childModel": "GradeScale",
                "childField": "id"
            }
        }
    ],
    "constraints": [
        {
            "type": "unique",
            "fields": [
                "org"
            ]
        }
    ],
    "privileges": [
        {
            "mask": 15,
            "type": "global"
        },
        {
            "mask": 15,
            "type": "global",
            "account": "Administrators"
        },
        {
            "mask": 15,
            "type": "global",
            "account": "OneRosterAdmins"
        }
    ]
}
