{
    "$schema": "https://themost-framework.github.io/themost/models/2018/2/schema.json",
    "@id": "https://universis.io/entities/OneRosterCourseLocale",
    "title": "OneRosterCourseLocale",
    "name": "OneRosterCourseLocale",
    "contains": "OneRosterCourse",
    "hidden": true,
    "sealed": false,
    "version": "1.1",
    "fields": [
      {
        "@id": "http://www.imsglobal.org/sourcedId",
        "name": "sourcedId",
        "type": "Guid",
        "primary": true,
        "nullable": false,
        "value": "javascript:return require('@themost/common').Guid.newGuid().toString();"
    },
      {
        "@id": "https://themost.io/schemas/object",
        "name": "object",
        "title": "object",
        "description": "The parent item.",
        "type": "OneRosterCourse"
      },
      {
        "@id": "http://schema.org/inLanguage",
        "name": "inLanguage",
        "title": "inLanguage",
        "description": "The language of this item.",
        "type": "Text",
        "size": 5
      },
      {
        "name": "title",
        "title": "Title",
        "description": "The course title in the given language.",
        "type": "Text"
      }
    ],
    "constraints": [
      {
        "type": "unique",
        "fields": ["object", "inLanguage"]
      }
    ],
    "privileges": [
      {
          "mask": 15,
          "type": "global"
      },
      {
          "mask": 15,
          "type": "global",
          "account": "Administrators"
      },
      {
          "mask": 15,
          "type": "global",
          "account": "OneRosterAdmins"
      }
    ]
  }
  